{
"containerDefinitions": [
  {
    "name": "%%BITBUCKET_REPO_SLUG%%",
    "privileged": false,
    "image": "%%DOCKER_LOGIN_USERNAME%%/%%BITBUCKET_REPO_SLUG%%:%%BITBUCKET_BUILD_NUMBER%%",
    "cpu": 256,
    "memory": 512,
    "memoryReservation": 512,
    "essential": true,
    "workingDirectory": "/app",
    "portMappings": [
      {
        "hostPort": 8080,
        "protocol": "tcp",
        "containerPort": 8080
      }
    ]
  }
],
  "family": "%%BITBUCKET_REPO_SLUG%%",
  "requiresCompatibilities": [
    "FARGATE"
],
  "executionRoleArn": "arn:aws:iam::849828677909:role/ecsTaskExecutionRole",
  "networkMode": "awsvpc",
  "cpu": "256",
  "memory": "512"
}
